[
  {
    "id": 1,
    "name": "Emma",
    "email": "emma@gmail.com"
  },
  {
    "id": 2,
    "name": "Emmanuel",
    "email": "emmanuel@gmail.com"
  },
  {
    "id": 3,
    "name": "obonyo",
    "email": "emmaobonyo@gmail.com"
  }
]